PopData_Session_1.utf8
…
class: split-two bg-main3 with-thick-border border-black

.column[
## `filter` to select a subset of rows

## passengers who were 35 years old

```r
titanic %>%
* filter(Age == 35)
```

```
## # A tibble: 23 x 12
##    PassengerId Survived Pclass Name  Sex     Age SibSp Parch Ticket   Fare Cabin
##          <dbl>    <dbl>  <dbl> <chr> <chr> <dbl> <dbl> <dbl> <chr>   <dbl> <chr>
##  1           4        1      1 Futr~ fema~    35     1     0 113803  53.1  C123 
##  2           5        0      3 Alle~ male     35     0     0 373450   8.05 <NA> 
##  3          21        0      2 Fynn~ male     35     0     0 239865  26    <NA> 
##  4         212        1      2 Came~ fema~    35     0     0 F.C.C~  21    <NA> 
##  5         231        1      1 Harr~ fema~    35     1     0 36973   83.5  C83  
##  6         259        1      1 Ward~ fema~    35     0     0 PC 17~ 512.   <NA> 
##  7         270        1      1 Biss~ fema~    35     0     0 PC 17~ 136.   C99  
##  8         280        1      3 Abbo~ fema~    35     1     1 C.A. ~  20.2  <NA> 
##  9         364        0      3 Asim~ male     35     0     0 SOTON~   7.05 <NA> 
## 10         384        1      1 Holv~ fema~    35     1     0 113789  52    <NA> 
## # ... with 13 more rows, and 1 more variable: Embarked <chr>
```
…
---
class: bg-main1 black

## `select` to exclude variables

```r
titanic %>%
  select(-Embarked)
```

```
## # A tibble: 1,309 x 11
##    PassengerId Survived Pclass Name   Sex     Age SibSp Parch Ticket  Fare Cabin
##          <dbl>    <dbl>  <dbl> <chr>  <chr> <dbl> <dbl> <dbl> <chr>  <dbl> <chr>
##  1           1        0      3 Braun~ male     22     1     0 A/5 2~  7.25 <NA> 
##  2           2        1      1 Cumin~ fema~    38     1     0 PC 17~ 71.3  C85  
##  3           3        1      3 Heikk~ fema~    26     0     0 STON/~  7.92 <NA> 
##  4           4        1      1 Futre~ fema~    35     1     0 113803 53.1  C123 
##  5           5        0      3 Allen~ male     35     0     0 373450  8.05 <NA> 
##  6           6        0      3 Moran~ male     NA     0     0 330877  8.46 <NA> 
##  7           7        0      1 McCar~ male     54     0     0 17463  51.9  E46  
##  8           8        0      3 Palss~ male      2     3     1 349909 21.1  <NA> 
##  9           9        1      3 Johns~ fema~    27     0     2 347742 11.1  <NA> 
## 10          10        1      2 Nasse~ fema~    14     1     0 237736 30.1  <NA> 
## # ... with 1,299 more rows
```

---
class: bg-main1 black

## `select` a range of variables

```r
titanic %>%
  select(PassengerId:Name)
```

```
## # A tibble: 1,309 x 4
##    PassengerId Survived Pclass Name                                             
##          <dbl>    <dbl>  <dbl> <chr>                                            
##  1           1        0      3 Braund, Mr. Owen Harris                          
##  2           2        1      1 Cumings, Mrs. John Bradley (Florence Briggs Thay~
##  3           3        1      3 Heikkinen, Miss. Laina                           
##  4           4        1      1 Futrelle, Mrs. Jacques Heath (Lily May Peel)     
##  5           5        0      3 Allen, Mr. William Henry                         
##  6           6        0      3 Moran, Mr. James                                 
##  7           7        0      1 McCarthy, Mr. Timothy J                          
##  8           8        0      3 Palsson, Master. Gosta Leonard                   
##  9           9        1      3 Johnson, Mrs. Oscar W (Elisabeth Vilhelmina Berg)
## 10          10        1      2 Nasser, Mrs. Nicholas (Adele Achem)              
## # ... with 1,299 more rows
```
…
## `distinct` to filter for unique rows

##And `arrange` to order alphabetically

```r
titanic %>% 
  select(Pclass, Fare) %>% 
  distinct() %>% 
  arrange(Fare, Pclass)
```

```
## # A tibble: 289 x 2
##    Pclass  Fare
##     <dbl> <dbl>
##  1      1  0   
##  2      2  0   
##  3      3  0   
##  4      3  3.17
##  5      3  4.01
##  6      1  5   
##  7      3  6.24
##  8      3  6.44
##  9      3  6.45
## 10      3  6.50
## # ... with 279 more rows
```
…
