Presentation Ninja
…
## `distinct` to filter for unique rows

##And `arrange` to order alphabetically

```r
titanic %>% 
  select(Pclass, Fare) %>% 
  distinct() %>% 
  arrange(Fare, Pclass)
```

```
## # A tibble: 289 x 2
##    Pclass  Fare
##     <dbl> <dbl>
##  1      1  0   
##  2      2  0   
##  3      3  0   
##  4      3  3.17
##  5      3  4.01
##  6      1  5   
##  7      3  6.24
##  8      3  6.44
##  9      3  6.45
## 10      3  6.50
## # ... with 279 more rows
```
…
#Mutate

###`Mutate` is a function that defines and inserts new variables into a tibble. You can refer to existing variables by name.
### Most often when you define a new variable with `mutate` you'll also want to save the resulting data frame, often by .yellow[writing over] the original data frame.

### Create a family size variable by combining SibSp and Parch (including the passenger themselves)

```r
titanic <- titanic %>%
    mutate(family_size = SibSp + Parch + 1)
```

```{.scroll-100}
## # A tibble: 1,309 x 3
##    SibSp Parch family_size
##    <dbl> <dbl>       <dbl>
##  1     1     0           2
##  2     1     0           2
##  3     0     0           1
##  4     1     0           2
##  5     0     0           1
##  6     0     0           1
##  7     0     0           1
##  8     3     1           5
##  9     0     2           3
## 10     1     0           2
## # ... with 1,299 more rows
```

]]

.column[.content[
We can `recode` the 0 and 1 values contained in `Survived` to "Survived" or "Died"

```r
titanic %>%
  mutate(Survived = ifelse(Survived==1, "Survived",
   ifelse(Survived==0,"Died", NA)
  ))
```

```{.scroll-100}
## # A tibble: 1,309 x 13
##    PassengerId Survived Pclass Name                                                Sex      Age SibSp Parch Ticket            Fare Cabin Embarked family_size
##          <dbl> <chr>     <dbl> <chr>                                               <chr>  <dbl> <dbl> <dbl> <chr>            <dbl> <chr> <chr>          <dbl>
##  1           1 Died          3 Braund, Mr. Owen Harris                             male      22     1     0 A/5 21171         7.25 <NA>  S                  2
##  2           2 Survived      1 Cumings, Mrs. John Bradley (Florence Briggs Thayer) female    38     1     0 PC 17599         71.3  C85   C                  2
##  3           3 Survived      3 Heikkinen, Miss. Laina                              female    26     0     0 STON/O2. 3101282  7.92 <NA>  S                  1
##  4           4 Survived      1 Futrelle, Mrs. Jacques Heath (Lily May Peel)        female    35     1     0 113803           53.1  C123  S                  2
##  5           5 Died          3 Allen, Mr. William Henry                            male      35     0     0 373450            8.05 <NA>  S                  1
##  6           6 Died          3 Moran, Mr. James                                    male      NA     0     0 330877            8.46 <NA>  Q                  1
##  7           7 Died          1 McCarthy, Mr. Timothy J                             male      54     0     0 17463            51.9  E46   S                  1
##  8           8 Died          3 Palsson, Master. Gosta Leonard                      male       2     3     1 349909           21.1  <NA>  S                  5
##  9           9 Survived      3 Johnson, Mrs. Oscar W (Elisabeth Vilhelmina Berg)   female    27     0     2 347742           11.1  <NA>  S                  3
## 10          10 Survived      2 Nasser, Mrs. Nicholas (Adele Achem)                 female    14     1     0 237736           30.1  <NA>  C                  2
## # ... with 1,299 more rows
```
…
.column[.content[

```r
relig_income %>%
* pivot_longer(-religion, names_to = "income", values_to = "count")
```

```
## # A tibble: 180 x 3
##    religion income             count
##    <chr>    <chr>              <dbl>
##  1 Agnostic <$10k                 27
##  2 Agnostic $10-20k               34
##  3 Agnostic $20-30k               60
##  4 Agnostic $30-40k               81
##  5 Agnostic $40-50k               76
##  6 Agnostic $50-75k              137
##  7 Agnostic $75-100k             122
##  8 Agnostic $100-150k            109
##  9 Agnostic >150k                 84
## 10 Agnostic Don't know/refused    96
## # ... with 170 more rows
```
]]
---
class: split-two bg-main1
.column[.content[
#Reshaping Data with Tidyr

##`pivot_wider`
###"widens" data, increasing the number of columns and decreasing the number of rows. The inverse transformation is `pivot_longer()`.
### formerly known as `gather`

```{.scroll-100}
## # A tibble: 114 x 3
##    fish  station  seen
##    <fct> <fct>   <int>
##  1 4842  Release     1
##  2 4842  I80_1       1
##  3 4842  Lisbon      1
##  4 4842  Rstr        1
##  5 4842  Base_TD     1
##  6 4842  BCE         1
##  7 4842  BCW         1
##  8 4842  BCE2        1
##  9 4842  BCW2        1
## 10 4842  MAE         1
## # ... with 104 more rows
```
…
